mean_C3_mu,mean_Cp3_mu,mean_C4_mu,var_C3_mu,var_Cp3_mu,var_C4_mu,skew_C3_mu,skew_Cp3_mu,skew_C4_mu,mean_C3_beta,mean_Cp3_beta,mean_C4_beta,var_C3_beta,var_Cp3_beta,var_C4_beta,skew_C3_beta,skew_Cp3_beta,skew_C4_beta,class
0.002606420161720397,-0.0039640494699893685,0.0030992233162173317,2.105907744220632,1.7781974048240876,2.623488826205004,-0.008128144175942752,0.008120546913975896,-0.004151711294976426,-0.004281452029922178,-0.0037958640063438533,-0.0003688241157669925,7.481924778132543,6.3679548058821345,4.208394270881239,0.007333683302512533,0.008308457894811931,-0.01778500507082872,foot
0.002849015281021542,0.004188233244541047,-0.0017421256620449928,2.2464331609603243,2.0453364216698513,2.6152329663652063,-0.001735054130245944,-0.0077667462841085454,0.0013303636522458012,0.00822826232964934,0.004855720564781573,-0.0018971604143237784,7.077609447319543,5.3155696558226,4.046740186008964,-0.0002574452751390588,-0.00023825701844009607,0.009524758658328612,hand
0.007858763496487108,0.0029780079514763295,-0.00010405893306154113,2.3067880419361115,1.3459459855377351,2.45978931261174,-0.006481421756171366,-0.0045683447789088266,0.0014933723185252062,-0.010591816839596533,-0.012569626945734196,-0.00832692683331926,7.144908838804843,7.614789502286105,4.440317968690589,-0.02577983654912056,-0.04282585009915855,-0.015344225385569185,foot
-0.02246618479828485,-0.01724302964083949,-0.011125545584261853,1.9124251511789436,1.4472578567868832,2.2333833938740635,-0.009510118574327583,-0.014234924311865784,-0.004023900634827356,0.003251480192249338,0.009933936099925933,0.012267083063634613,3.611510702249753,2.5736816866175,4.702654251498064,0.01224055831617191,0.056662597254232804,0.005110689138744639,hand
0.01909390663928683,0.018120804080960996,0.01097736577760348,3.909690949234839,2.878677915020998,3.0959239276084745,-0.010672723237112674,-0.00818463102121351,-0.0029090845775225655,0.0016755489723749015,-0.0011378246499829502,-0.003744109088397279,5.020032733284028,5.084874292657183,3.332433712797596,-0.011730818250057371,0.0007044444476054847,-0.006812307875572582,hand
-0.013376056243251187,-0.010788485903891996,-0.0009791758356441935,2.8716725749359675,2.2194210525624594,3.5706036697046413,0.012036082033050385,0.007953203629985136,0.0010398889427869742,0.008240348246510687,0.0002673294778525102,0.006781802976590403,4.467202108223466,4.329017553461156,4.097183661694567,-0.01698204160826286,0.04995994454894411,-0.027709526151097702,hand
-0.004332385711495348,-0.00989545730537816,-0.015234061172957511,4.580525547355461,4.513833880366198,5.7657716543941335,0.00015422982945566822,0.0009043980689430186,0.010713305779018146,-0.014069225310207677,-0.00892967670725069,-0.008387267640688345,4.990846938428036,4.258006569538414,4.580231711830572,0.002368547805477203,-0.008846929935936155,0.0231766281840275,hand
0.02463068445628353,0.02937047124251335,0.022561627466643648,1.896674910103271,1.5406942590613015,2.258877769995728,0.03776688284073167,0.12211115988630374,-0.003079801338757348,0.00646623020193272,0.006735537945487086,0.0007788229497291166,4.837074024279302,4.378914459405685,3.758023724173707,0.001241812980657157,0.016861825692510202,0.006939765276530976,hand
-0.0060549434910163544,-0.009727995849326022,-0.012412825422762872,3.917746146629304,2.714837590766486,2.7963327544400927,-0.005111194862230512,-0.030699221035331247,0.01537171190158776,0.012686173093191982,0.016269481280200625,0.00822819428253102,6.828713812911625,6.5475896130238835,4.479011477228313,0.002338770482904573,-0.002890915902285489,0.00705066919459564,hand
0.0045003738581578644,0.002130625187053493,0.0008566248154217781,3.5383527264168624,2.4087484167969757,3.9567963380499633,0.014651345572920992,0.0004427895674893707,-0.007652134583367445,-0.011847981289099883,-0.009772270894065736,-0.004011319372170782,5.696588684393366,4.98184346080809,3.8939721960899094,-0.0007279058441600736,0.0030881437337696035,0.0024736025793181426,foot
-0.010326414606158844,-0.004670279446960226,0.004253219023935233,3.473133855482594,1.8415060996183363,2.464475936663427,-0.010789726023119632,0.0014200774516957243,0.007205653390346485,0.006383799489904019,0.0026820779538925333,0.0014352262225702135,6.394660133661199,5.601365683171036,4.077409961974264,-0.02245326348614995,0.010155810637143714,-0.014773887928024209,foot
0.0030862067588275765,-0.00040447143024837116,-0.005170521366069238,2.296066028986835,2.352033145560218,3.739775249984879,-0.005655413628317347,0.0015705581817451557,0.006834155549170323,-0.010775020421153343,-0.008670148139545726,-0.006966517277737845,11.697098951431467,7.651730335004976,5.458323371671826,0.0052764755679216525,0.0010229996191363146,-0.005185828074924589,foot
-0.014368231693635146,-0.010650654946222868,0.0005944490162240985,4.8585701122674925,5.517842705597175,4.286390280460229,0.012906798153465956,0.009267076024965858,-0.0008444363872628897,-0.002943912885308231,-0.0028247865859497793,-0.007639707844302678,10.851363351503728,8.79700204652251,5.281195013250428,0.0027326900773146177,0.023882750520543655,-0.008320282006063034,foot
-0.0033349021111088533,-0.008508978619396139,-0.008837407344222352,4.3955306501940665,3.940071565989139,3.8647766612197114,-0.0036716314668846298,-0.013793690800685727,0.002853117287210375,0.014466689298074924,0.013677935956774133,0.0129493353582528,10.056965370384928,8.004188982082049,4.2933389990366235,-0.05281396986307428,-0.03896463674854803,-0.01307521830857605,foot
0.010961137879736753,0.01767870806617083,0.007369203038573201,2.69302081029434,1.8209721797834921,4.136642498984016,0.012571832061058833,0.067479207551558,-0.0015353354285487586,-0.013874910000696032,-0.013503884933484582,-0.010519224885838206,4.418703095809393,3.866111401270309,2.9969717475132,-0.017055736605236682,-0.05418976261758969,0.01303945804326735,hand
0.00620011122515694,0.00039226369258843176,0.0061443444543795,3.625210425188596,2.8452068620191957,2.6600870020836127,-0.00630612074385486,-0.0010811843544299483,-0.006633428835306685,0.014989384848644817,0.016113630465802168,0.015356314706972334,8.897190291726197,6.575805886423714,4.698466514841963,-0.027596865770459243,0.022145806889876447,0.027499395308126676,foot
-0.008492759156282151,-0.006745634532839779,0.0010927691205110009,3.910972996752989,2.693738771278838,3.154598562459393,-0.0008694300635287028,-0.007484642931542854,-0.002925053154983895,-0.0083133653951099,-0.01025775369389659,-0.009678597152440623,4.62322160839338,4.662508929541605,4.460228931068058,0.0033835827498894075,-0.004569541802382561,-0.031611589199052624,hand
0.008129545471797665,0.013084978085953746,0.004216768110053996,2.185106111157527,2.1449495852973888,3.3581229719593155,0.011443919981327426,0.0075572715718192724,-0.0043367859871947705,0.0021332776800614467,-0.0036577841140032134,0.002622570209007284,8.436587974913147,7.154012211748335,5.064041969183581,-0.010823796736622534,-0.00364818362195324,-0.01864995732738765,hand
-0.0033725440221743738,-0.009483713350367748,-0.008427758246408151,2.9807935282158056,2.3169244549454824,2.339422487305365,0.005075453634361867,0.012951677372118359,0.009530957390212872,-0.006855281149043356,-0.0023424432159790875,-1.2321240652452658e-05,6.465722511829715,5.339132702683937,4.645985893822842,-0.004269327099871376,-0.005653422608900555,-0.02976411645162477,hand
0.009279409726727071,0.010622036921583205,0.003889425946756936,2.692301923339171,2.7974287582246107,3.0259118838557417,-0.004323312691772026,0.0019488793677823262,-0.004686119645235436,0.014377711037138237,0.014596308231348694,0.002756960214209058,6.261910488230906,5.173061206941174,5.494765805445881,-0.004784633268574011,-0.003539176563820059,-0.004087499205792116,hand
-0.012149729630989864,-0.00932498518328224,-0.010363976024361055,1.8832880470392552,2.4774902465711994,1.657796578522064,-0.0012222645400921128,-0.008130302885422694,0.010013378020184987,-0.008443998856792806,-0.012153800860098582,-0.005515175092725869,7.518152468770503,4.277685989685086,3.4211956810446082,-0.03322580405368397,-0.011913430498494434,-0.011608304097495569,hand
0.007678051198301004,0.0006613785940609497,0.012715084346691632,2.8961358806892106,2.8909213362516755,2.5426146459693078,-0.007812377606037717,-0.001711098229037828,-0.015215165427654045,0.002681164110096231,0.005532168156983636,0.007319813388341543,5.815031501041617,5.1969567162010595,3.4713590917927744,-0.012317504065064634,-0.007816736326179975,0.0015966418612292648,hand
-0.0021273970821838687,0.0026930781415506785,-0.0068558413625847674,1.527700440309317,1.516327366781931,2.0492482932630574,-0.0012631723612430222,-0.0022110681031793115,0.009032871020542706,-0.002805640876623262,-0.00417094745596857,-0.010877533105725007,8.781513431576665,7.343673504751976,4.190489640434914,0.010171596360371186,0.012769761244332229,-0.00757461599332727,foot
-0.00756699200474001,-0.0056198086364865575,-0.0015422437034876672,3.713865910280355,2.2738943528344255,2.8376428974049697,0.010943813443658856,0.010390909828015457,0.0028119157866933983,0.009866320767577439,0.01249218935048969,0.012392426937820108,8.11838291387151,7.074870624888393,5.112189502304552,0.05319001555693973,0.06565685035303334,-0.008728444992516373,foot
-0.006529408726209966,-0.002308923879156055,-0.00490117774141278,3.8108875729317018,3.650694816684626,3.6768414827073657,-0.0019552245441746773,0.0018743819773067278,0.0025774753776115255,-0.01492723197461268,-0.013385899779221194,-0.011926555890470134,7.739439189640394,6.947690265880561,4.232944118927972,0.006824088234917093,0.0010406402115520363,0.007450298605819187,hand
0.011950262950719454,0.010680447166451897,0.015664994554196583,4.066470086178183,2.8314931870812305,3.407511900057435,-0.006200918877256585,-0.003131485636527074,-0.014587546346993593,0.014892093177385355,0.010650431898387545,0.0033260395498809483,5.493369248582795,4.478103594691584,3.962322227953273,0.00080605313695794,-0.0027261180184331366,-0.0016442359337496548,hand
0.0044376738876729825,5.222273367541597e-05,-0.0026177695584476057,1.7311233190068067,1.4508610995549822,1.5752159451667758,-0.0032192832084584366,-0.03022335494717593,0.003433329543598588,-0.0031441780864565273,-0.0004896092773221916,0.010580681734595107,5.259361126980723,4.8693919572833675,4.026806226486939,0.0018448674896289804,-0.004649553149821852,0.005691608006226346,hand
-0.0003184649158473856,-0.0070712729925794665,-0.001457949858802129,2.872032910001045,2.5870297772420834,3.934853651556357,-0.001145210042209552,0.00917186864090257,-0.0006264631124869747,-0.0076616234003631925,-0.0047377510649981415,-0.006014299165814902,3.4864844032880753,3.3618882814930404,3.9038183928629855,-0.01824671601689769,-0.018364627016310236,-0.030314500300793967,hand
0.015769355387944023,0.020819882097277812,0.011684782165921661,4.448093238262859,2.947455075306293,2.8788986061089203,0.011831158774972046,0.021460607917264514,0.007435690899404373,0.004220565553622938,0.0006953251066510892,0.004513052175062685,6.690197219545467,6.041383810822823,4.879737299194865,-0.012846109718155684,0.004105867527380047,0.0033958957823429226,foot
-0.015793444262366105,-0.01258770689079354,-0.002403967547714478,5.476629328468448,4.158687830045516,4.9760173532136305,0.0006297325273916285,-0.005995818346319528,0.00017690780671641792,-0.010859345254568359,-0.011752266060549611,-0.012082533817999983,4.843513561870084,4.134471571137923,4.538404597924182,0.012898838656941405,-0.00015345878891997208,0.004953601011635779,hand
-0.0013133248577396506,-0.00029332332738006,0.0019369556901274727,2.793526601778979,2.599219845446524,3.343649546074584,-0.013901003385996353,-0.015417025431494471,0.0011374106130809937,0.009598160706717547,0.006464284408512444,0.005406247441947445,6.557740567792232,4.719588069047019,4.7271742602392814,-0.030712939617517247,-0.017136579826442278,-0.01722224065620383,hand
0.002902160273691784,0.0003470736347538761,-0.004983024651185872,5.343882004539871,4.599576729484029,5.087030776094325,-0.002858972494167243,0.004318241026052112,0.0001772367188084518,-0.0063657970229437305,-0.0011663569605271746,-0.00028376995683403595,5.740184538268783,5.1100150012508845,5.285185639904982,0.010057871321118086,-0.00395977466062744,-0.005999406683150681,hand
-0.013378064717251031,-0.012869672001839045,-0.020982800803463975,2.9241199526962647,2.4665723087126805,2.9315603127068455,0.015212208573110354,0.0037255931304253065,0.006015162655955176,0.0030342968745473964,-0.003900214512888701,-0.0034723380128375025,3.731154299531978,3.4171830312327014,3.338808376131903,-0.041127838723572965,-0.06215483267305954,-0.02473259197735546,hand
0.014381386577517955,0.016986006033263407,0.009637600673109651,2.6242611378020446,2.179636099110478,3.253071943154273,-0.014885616263910922,-0.011401916219287784,-0.0004736648916149492,0.0025790238832719653,0.007768421169492703,-0.0010894148087051327,4.334970166502458,3.8894828919066673,3.9210920662843156,0.019952753744572973,0.044919401943366764,0.006320012633238929,hand
-0.007432932151336046,-0.010257623773642824,0.0016687211885999668,3.155547478114593,2.7166752355747046,2.4752402436940897,0.008280460509677786,0.007139529532750817,-0.002348209920231782,0.005029192387387166,0.004049909507454308,0.000383938062027072,9.958713376709182,8.511490923838723,4.879618050278049,-0.017252374959863294,0.00502415225432485,-0.0012269291764293228,hand
0.0009663013411888981,0.0025302247289537335,0.0057373317542416934,1.4009024354980175,1.1965892976023187,1.1160697085612759,0.004133562443468247,0.003885446979719356,0.006727526686872021,-0.004752450276369023,-0.0032305235721452547,0.009570682193355537,4.54701117042428,4.168366769184024,4.0457525250955095,-0.02240546311263712,-0.019680774966037182,-0.005169922634102599,hand
-0.002012070657455666,-0.002597979476463271,-0.012030202112995882,3.3045200279161038,2.161668870635302,3.176633902151882,0.0011640598383379512,0.0007604083871395971,0.005580417898811059,-0.00829312770383616,-0.006421493040386128,-0.008778970602608644,10.289911058920305,8.287851983260975,4.5228956254130335,-0.01806212063975711,-0.00301582097390012,0.021407797018217833,foot
0.0005517667901485553,-0.0023696906029795043,0.007665566300044727,2.846249546721859,1.8612392458953282,3.5355723487654287,-0.001025926339180341,0.0041134248540534765,-0.003033760174389249,0.0108155779099421,0.009064392337614476,0.012325935549932387,8.99149743774965,8.434872756192643,4.507373066353024,0.017107116477920282,-0.005758131610667804,0.018133080129533248,foot
-0.010973536411927706,-0.009843809607964884,-0.008317809575356182,1.859365251079862,1.7686796576919168,3.282616041570489,-0.015833529067586755,-0.02126870365572106,0.009538585796006301,-0.0020914001182995145,-0.004468668637271526,-0.012579635799414544,4.589143643902066,3.7959944208847616,4.374052522007227,-0.016537523375435268,-0.00833189264810216,-0.010692411073617066,hand
0.009487487141831487,0.007416615188544092,0.007941613545916933,3.171000572152717,1.8297706955982276,1.958534981652053,0.0029776507547458514,0.024445664670860335,-0.009639073937636527,-0.0034523869168579823,-0.003125312177290638,-0.003548465354590653,5.461835170326973,4.854731727271684,4.713012922925438,0.009966469705448015,-0.0005028555775890536,-0.004070080275390519,hand
-0.0048705619994575036,-0.0011422905306565213,-0.0013965998693112578,3.7914931333399164,3.120776591534336,2.437704668798756,0.005216105350944794,0.00043942462982832404,-0.0025096706832399354,0.0009167418117744716,0.0022288621691318004,0.004599694493938379,12.270720518230123,10.97340042316634,4.892877960865164,0.009711192918805622,0.009896012335117528,0.022426583192723795,foot
0.007455623985791515,0.004434154419282414,-0.0006783001149978514,2.3852081862356735,2.0624064693978115,4.007260147568171,-0.009658755122635433,-0.004953907272406179,0.0025705293937818043,-0.00452170735652348,-0.004128394319669269,-0.0012096392596801025,11.792990595705072,8.480486667966355,5.300029358097287,-0.009023368490218281,-0.008282562427145939,-0.01506260890746252,foot
0.007619324472986832,0.001300235875663664,0.004081206227137662,2.842230598729581,1.5059706216242208,2.763337577881893,-0.008192079875840806,-0.0008253406741096378,-0.0046557688872783465,0.00562629197317445,0.007367312124365402,0.006926441717360476,4.739798696885517,3.8915297385935075,4.248943101332984,-0.013465033511664939,-0.01674870452195718,-0.0038444827159779715,hand
-0.021069542600248695,-0.014785955430761843,-0.014297186250939712,2.8612332104386398,3.34009861814754,3.210675933729649,-0.018184436738425323,-0.01752728280916492,0.006761481453750601,-0.0032429798091873838,-0.0013707703700759275,-0.0039687637071920846,6.3800353535499505,6.804051949211984,4.104673067428607,-0.018106827047070208,-0.010968652138418342,0.007445509660894265,hand
0.007550655598119395,0.008530096262137108,0.009132899426644839,4.722049464065483,3.7467929842790566,3.1238788041608485,0.010243364463209946,0.018160632442752508,0.001368865651851107,-0.0023971679413541808,-0.007522527213587111,-0.010639330755554887,9.488301533063416,8.905971101658611,4.678713873484834,0.009994660900058006,0.013212510913514993,0.005021714386799607,foot
0.009585824720741192,0.010683627325552196,0.006776019979018713,3.174213285524785,2.8321698595015112,3.7488348429540097,-0.007302637242572669,-0.0062696624873152355,-0.010093607746681148,-0.008673068458391907,-0.003666354269256077,0.00033911252852697693,7.146736734649526,6.861913821880623,4.747827930004447,-0.05487875603719432,-0.039527643747136104,-0.006898115142232669,hand
-0.002594475597689609,-0.007537380926994617,0.000730691490776696,4.299617537615932,3.6965908843576556,3.8034035011277116,0.001973894511706349,0.0036765012773582705,-0.0003889736277684709,0.014283982298307282,0.013785803653833462,0.013940486817655341,6.42400402601858,4.976617244379996,4.0918433663961995,0.041425417768164344,0.045683988107338695,0.04094455983647102,hand
0.0067319821264914025,0.012520796970298512,-0.0010726124551552908,3.035318290030384,2.6181625982088024,3.411662380570379,-0.008352771434473787,-0.0068085015154145025,0.0027865339964904564,-0.012195349836916272,-0.010851774911815163,-0.006800699211004909,8.49006747758058,7.0262295803730686,3.9908861043020187,0.01054495878542066,0.01974548249246509,0.003379342553837753,hand
0.0013031389596529354,-0.004292589200900881,-0.0029575756857586253,4.070252333614386,3.1014123952978987,4.117634107163802,0.012300474442286592,0.004221027646279315,0.0026824769850584307,0.0012699512645745728,0.0013389580370461863,-0.004474422672819732,8.074986288539964,6.528571719010611,4.828300289678505,0.008480360016005458,-0.022280349790007817,0.001941584447993604,foot
-0.0068081050545651745,-0.0015492056707533646,0.0009338423780542459,4.471290266408736,3.341766594999139,3.2142960877539353,-0.0030845292320691225,-0.0014721226913123652,-6.660364287301662e-05,0.0031438395044877917,0.0018142605096050026,0.002793384283238587,7.064347994194048,5.277081562666932,4.285107878208823,0.030422662495804192,0.044070671080744764,-0.00552196338861776,hand
-0.00046489801779391016,-0.006110532181631035,0.003472236995447002,3.5051886188822747,2.25049973366983,3.2201811287596067,-0.0010803916385592788,0.00906473565756561,-0.00442751543619089,0.011411486975146542,0.010801937095876726,0.00820671208963478,7.697527862187598,5.723299407759554,3.8392034899190337,-0.018527610572963957,-0.03271805298267153,-0.019873758999399825,foot
-0.0011734447954814184,0.0029430308558374384,-0.006205057080455325,1.9563534778030118,1.9334826695074685,2.8154595583422304,0.0018865062660246464,-0.005840124183651297,0.0030776339280822137,0.0013116214610352276,-0.004400998771862762,-0.004620271409627706,4.2733663447616,3.886611984319153,3.3479629091156586,0.032677616387569566,0.018463732746121966,0.012793105471384347,hand
-0.017817714273892112,-0.013434458954441097,-0.0010099718233726632,4.537917024135137,3.122022955984309,3.5617503217205435,-0.010089703298595508,0.0016027472382921445,0.0031776917568036925,-0.021942690224169368,-0.01327299005955687,-0.0032636287388547176,7.850426944705383,7.123971272409543,3.7715988561817766,-0.05824445181206015,-0.028050645534061423,-0.009512929571698057,foot
0.026889578757495085,0.023172307280616408,0.010433932171137382,2.786183395595326,2.5906957570263884,3.8229410287721515,0.0331334522956163,-0.003626625665474089,-0.0037449884115149192,0.014962247160937426,0.009230204287286839,0.00477691967590865,8.185030992170416,6.3239569732472765,4.213723824567025,0.036990354951245405,0.01891367659211316,0.00010029279697849837,foot
-0.013445767825924037,-0.010380545558123637,-0.009189004845862098,2.8370548387305843,2.1844822519268594,2.630110925510736,0.013506782165539384,0.006646721113223107,-0.0026192360563804433,0.004609378865088598,0.007037785881441543,0.005939462639824474,6.168145886893172,4.738274696358089,3.9909839949449846,-0.005924123315215785,0.008346222318625024,0.0012161273654690563,hand
-0.0011570125251310639,-0.00604098863605702,-0.005475400285337579,1.6235954755862314,1.42067190250837,1.614607489903583,0.00319818257230225,0.007561861939622449,0.007492912942799086,-0.0050197872702186725,-0.00552317113318513,-0.006098156955005975,11.659635039145483,9.523406321124886,3.6155133298494713,-0.00996615818078295,-0.015202187860495363,-0.031001543451758793,foot
-0.0022812366347747474,0.0022821631135967147,0.0052156720253071906,3.473810631860361,3.123518263658712,2.4725499705767424,0.00011750317665280807,-0.0024140559085792076,-0.006855890400628353,0.015795935456726192,0.014414294610653166,0.001202876658622742,10.157240255291338,8.105728874239142,4.581735125769621,0.0256154394890625,0.026191516587341094,-0.0005156963083764783,hand
0.00047232700932326566,-0.003972562550701225,0.0009195106181461545,3.1819831814412955,2.4350394066088707,2.9671159196014094,0.000319968883013866,0.002979484588926924,-0.0017315527590954878,-0.010834503403239788,-0.011776817402127592,0.002025937260770303,8.671734428139663,7.208385984170239,4.840461710841397,-0.0444677046977795,-0.04085250043967453,-0.009826961908353518,hand
0.0019133908653887238,0.0033948950217696874,-0.009308240819129692,4.100662927665977,3.53374589344715,3.0931019348966795,-0.029047316361117414,-0.0264287673118431,-0.01744964622869988,-0.0030208550458453746,0.00012752053691563603,0.00454365052430931,11.178525211432062,8.868973531567972,4.343974450183396,0.006593919465446211,0.009421459154179192,0.02101486889913393,hand
0.005674785722727842,-0.0006389134413716553,0.00979194738272558,4.180195333648465,3.017051551524263,2.41388035455302,0.01961984106533187,0.029007195622249782,0.02979517903183482,-0.002065488175409788,-0.007985639635342708,-0.006439147228878028,6.740581390791686,5.6178325767265065,3.0489591765458544,-0.015989064529627176,-0.02739218395067084,-0.01731598561056966,hand
-0.00534395407856098,0.003503955217401422,-0.006829232749570837,3.754622142766534,3.4891629024881303,1.6389585152521338,-0.0037366590208527937,-0.0068516905953590265,-0.005834306663834768,0.0036685003377766082,0.007488669000007922,-0.005759866524455227,6.575735526336929,5.921612432982905,3.522588439113911,-0.011010296799841533,0.005399880591787538,0.007140647412415251,hand
0.009022392889947417,0.00863190735615417,0.007465402354271628,3.492393142640097,2.7047328636757975,4.045490086418555,-0.00013233788253950532,-0.006426095857044885,-0.005458414614708901,-0.00493259233247311,-0.005395580481666507,-0.00222087843712349,4.60267713212471,4.94499403351894,3.9342192302890497,-0.023886341231593135,-0.004096116799385682,-0.0007530066674212051,hand
0.008456117229738226,0.005211257993755986,0.007593210075711332,4.500810090683831,4.035342018992643,4.927528162991875,-0.0016178404743237727,0.0017460773655463475,-0.0075642429354166076,0.004003919050157642,0.005475592738118891,0.00767219494168317,6.044307988786111,4.415232540418746,4.290949053260741,-0.00860117972242928,0.024423179152458185,0.0006799643562472344,hand
-0.014335256935205383,-0.01131206997280562,-0.012381342301737786,2.2608566041954528,1.128256745280964,1.9843329412019448,-0.005019977140841974,-0.04428971278727074,0.01447546539137631,-0.004872269874805123,-0.0029504014930940735,-0.006469284302625846,8.06198397609638,6.949887203959994,4.171049538503879,-0.025915459371488987,-0.02032102381284032,-0.019731705886654547,hand
0.015775272863439705,0.006444888800290725,0.010028017431849405,3.9541040214408087,2.946893081470491,2.8499837445573677,0.0033969651661314806,-0.0039032528225577704,-0.009850897693487353,-0.0028591184821051704,-0.006300972008932967,-8.057066711781591e-05,5.206856568584249,5.0713031358013065,3.9357884958193283,0.047662816630724365,0.022505332297824795,0.035901143079946525,hand
-0.02303507014478087,-0.014500745380239146,-0.012475488162111454,4.488704321220742,3.363135393746206,2.8294820648300774,-0.004267129382857291,-0.00018706991388225936,-0.006847261879702481,-0.000903131399725158,0.0021339190697540113,-0.003619283905098592,12.46786749770917,10.300724621234,4.762043677805092,-0.006482743488249285,0.0026778238448638605,0.00585786996136356,foot
0.001600971272221778,-0.0011251707387961352,0.001776084243498886,3.5297758415939064,3.8246809999441784,3.1761263191030222,0.014323862438030034,0.007611513279571881,0.014067299251346444,0.008503835859789588,0.0060840105082928505,0.009963494109919533,8.370335805888223,6.920498942760226,5.029484091986997,-0.03234479575831254,-0.011701449396741986,-0.01225139443108433,foot
-0.012006479076027655,-0.0059023383818403285,-0.00785497805610918,3.3614303701798307,2.945648467074598,3.7933507940913196,-0.028456306928259654,-0.00781291059609272,0.0014178005727741832,-0.004998382938637281,-0.008027079761850252,-0.0024105346111775567,10.796152406446094,8.331949979951128,4.729472700844858,0.0010688365404204194,-0.0033402741497974677,0.008982737759409283,foot
0.012006538037512022,0.009149453495376722,0.01203419297814323,3.732230178652888,2.7041103986251103,2.964801209433785,0.009646601035369663,0.002909710950564169,-0.00842026625860427,0.003045812418448617,0.006630788216413167,-5.342129882643043e-05,6.610081661287358,6.413963378480748,4.039896632259889,-0.01748341164670741,-0.011773613473099572,-0.012443667045518338,foot
0.007558931780213049,0.00860350677059076,0.0032225192503717325,3.8751946339330425,3.1289372820496357,3.897368025910427,0.005143457773576117,-0.002051263379944744,-0.0015375726931449024,-0.006655472658879905,-0.005099447068590576,-0.0009339952426445847,5.379143763424081,4.358866082965457,3.9325944072501127,-0.00748862814066266,0.021348189289264383,0.013981008755255245,hand
0.002705790305479685,-0.004165204474776908,-0.00396411391452669,2.7675886431532595,2.3006627001570426,2.425456115934367,-0.004179878593584947,0.006871584455959628,0.005791768402870324,0.010471763548744555,0.005525576742175252,0.005529391665248925,4.520624315717924,3.260061545685151,3.7470424172671715,0.020555692562690225,0.0301085511331015,-0.010097240385109302,hand
-0.007290557486238894,-0.004172828685696384,0.0025344962049806304,3.1743833014132243,1.932301832979588,2.2443624376422093,0.011111625563186905,0.007676602731248521,-0.004243775710895387,-0.009911703835545552,-0.005368945809861855,0.0015568124894569442,6.790642351451533,5.690131640819862,4.4062089440828816,-0.026511035450032455,-0.035868334363898115,0.005939710714924955,hand
-0.00019262299389229655,0.0017362314507337571,-0.006718987503483816,5.310053400963684,4.4620058864154934,4.975497891196292,-0.0009379563010731731,-0.0032153796484216124,0.0083072426048329,0.009542196324787604,0.010207859036246195,-0.00011969383229288866,8.813572722164668,6.561435387287085,4.185114365546584,0.006169161881192334,0.0010880748601267956,-0.02306755899451013,hand
0.014557562871379213,0.011183874677071942,0.015338307529972261,2.199970005554801,2.6255598056522778,2.32662098602603,-0.009960603322525673,-0.012427076109216005,-0.013673966670924895,-0.007577003388962538,-0.008992575352148471,-0.00598698714188412,9.705604607683158,7.589137623896378,5.300157030030015,-0.024424162165617273,-0.032889434001634195,0.010086837219315404,hand
-0.011317530769708118,-0.013239152835314676,-0.013142083463942073,3.0744893791956573,2.1275888064581805,1.8880464849771188,0.010846218515959792,0.01722014492382975,0.008430917343544694,0.002775001702726576,0.0026618845602170626,0.0028807440555942794,6.7107349865851225,4.996539355225596,4.0258342704844265,-0.0020215918224977918,-0.012835320088058013,-0.0013407227062472128,hand
0.0007529609602388012,0.004126510961400225,0.0006039558341062845,3.250590922320763,2.2131162964936157,2.0748302888349737,-0.001039036400930309,-0.005944333127907984,-0.001016100463163408,0.006578192321846941,0.0054056665349592305,2.6283338146590117e-05,7.575854081175923,6.526900927601977,4.206549633036615,-0.015906254656951516,-0.012745282251119856,0.01226683755087226,foot
-0.01820972210974908,-0.012352296073460802,-0.005847634939003013,2.752554376951084,2.425561037887557,2.851285444841748,-0.03985135215552733,-0.015708286710373633,0.005005280141364167,-0.011304221922728666,-0.01135098431734266,-0.004826582752892717,9.233791471425622,8.067435964001993,5.0514005246106555,0.019420612650066213,0.02504663311285137,0.0073011401538057115,hand
0.008104184970598992,0.0035724118501154773,0.00015629240251052324,4.732954234782266,3.531546708147209,3.9749773371402797,0.013228278298282778,-0.0045256210078038536,0.0009153461161324395,0.01353048097982215,0.013364033265408795,0.0036498766282410315,6.838735889175775,5.820290758245635,4.734186652863327,-0.046590076105725194,-0.042485705216135,-0.00013162829617264517,foot
0.010418407232348763,0.010767018579575807,0.00740362574738768,2.310588758424246,3.1130092736059907,2.719855845458048,0.0021427763710855246,0.007620278617883048,-0.009630152955721349,-0.013597206198876438,-0.014083373275796429,-0.003801916536621272,6.230342357466874,5.334814486896858,3.6874634704536264,0.011570059966349477,0.02865142116103147,-0.010371132388229173,hand
-0.010285459301154622,-0.008334477606043627,-0.008207696616009981,1.579755125016161,1.0324895407679828,1.654621731628566,-0.0015722973776797632,0.0031962034742752114,0.007146794573722535,0.013454908535670024,0.01641242809359307,0.013649161436587702,5.17058034713475,4.521008956123575,4.539538598086763,0.009092362483982283,0.03346604691048746,0.032142479775778214,hand
0.016355078673412442,0.013524859633096874,0.01187180626937199,2.9964776527972217,3.3339584874847596,2.958516487343301,-0.01611898833329371,-0.016505558769116597,-0.012966797164563884,-0.015067567095294592,-0.018626189589928545,-0.011240078048905127,11.043977297794601,8.583058853558558,5.5067298178651365,0.0029279019455843514,-0.007253314547218262,0.009647182432208959,foot
-0.0019054990207228175,-0.0023879203306978363,-0.004782607654478131,3.3916937291668505,2.403473196160726,2.7257765495078377,0.003623951781651212,0.0033750099804224715,0.0040944931423773905,0.010099219522412923,0.015579299494104288,0.0019087472789186108,4.5238344806800255,3.9347274259206726,3.6777949512310832,0.025936069161729743,0.046949634418078284,0.007204349935553003,foot
-0.00556629768226789,-0.0058045571693694726,-0.0013388622472427717,2.0599079873824677,1.7366574688691514,2.2781544738290904,0.006633367354524619,0.009437501294833386,0.004460357513156086,-0.0025161360574307034,-0.004900423640107817,0.0016525928549975131,4.6446432559520945,3.857994718492778,4.78076739518269,-0.0003276016041210615,-0.0052746849739078085,-0.005063197908663037,hand
0.0033816461637551764,0.0035630059103859218,0.005692099214281373,2.796958810159008,2.0016055344356416,3.038424614224502,-0.004195870154327664,-0.0056364241426641905,-0.00702281632675383,0.0009802300716085356,0.0002032776714620992,0.0010670058212410031,4.377742123425816,3.7336307122478414,3.4621873385120017,0.03296189959276293,0.034330091081191526,0.016105297312362824,hand
-0.00694286565539689,-0.002801241368633139,-0.007129623859969021,2.041272772569278,1.3038061294988825,2.394303943543209,0.0050501244899355,0.0024075758360931755,0.005384767662133316,0.0068300400712723915,0.008085348268107636,0.003690000610081444,4.562783767129758,3.7880717402420787,3.562188009527054,-0.007640650536074565,0.001876682501871722,-0.0030134278433718267,hand
0.019422975790716605,0.009509494586984744,0.012984398045028022,3.681984292506388,2.723341409054467,2.305433678530998,-0.008686632137379715,-0.011285843156546923,-0.012921399538993529,-0.00922744317292517,-0.012426278265985045,-0.011089541759767316,9.42897243701926,8.212354355081086,3.7338918929202323,-0.010977005282809215,-0.0010174782751072916,0.001987362720140559,foot
-0.013296910815975676,-0.005873558701105652,-0.0020474336920006716,1.9799222542100579,1.3859322085653827,3.037107084494513,-0.019664614637670115,0.0007716580386369121,0.005936823547931783,-0.0026423811946727485,-0.001781061027262417,-0.0041803532333944005,4.3412609566258995,3.2751481922346977,3.83517068257083,0.011569465339694685,0.01246853223299776,0.0024175373910599344,hand
0.019955496331564883,0.016855154909290227,0.01198729263742753,4.12218943847195,2.9528801747602564,2.8610336765546394,0.01687998065125858,0.026239163496133863,0.024913261383518844,0.0005874300381563921,0.0012728599794160323,0.017380542353687568,6.888330330353879,5.810104857240172,4.871967456272517,0.014887639742350158,0.014826339726296194,0.012082591269497218,hand
-0.029874826316777993,-0.027408274489888904,-0.02054887442785015,4.305392537550886,3.4548847543922583,5.053964677999121,-0.027430941383322197,-0.026629029609962804,0.001967487395492123,0.024533153442150665,0.020297903888858684,-0.0006481944898397724,9.579772294636008,8.040821899572055,5.566169188521362,0.02808791731376802,0.023679978941050603,0.003147443393435514,foot
0.012132560753843342,0.010847608459255099,0.005091101791009724,3.3835374992151346,2.996574358498841,3.748717403486339,0.02100188169463184,0.014721790414817122,-0.0032406945525820545,-0.0212691622600902,-0.014668714572823415,-0.00817290739142436,4.614346675260354,3.697092275406211,3.3634579068479193,-0.1911845771226451,-0.14205027522118643,-0.0242416752689341,hand
0.003638574245485725,0.0021233870567738127,0.002831203820783969,2.1411024155039677,1.7584752111701747,2.5589939956351646,-0.005860788688206503,-0.004133542969905086,-0.0038704657628596244,-0.0075104581127004725,-0.007322668360164156,-0.004260920598274733,8.890212694343498,7.635087238530328,4.189404723419385,0.005018220152843943,0.01656383646721749,0.017881965297238497,foot
-0.006828486921827434,-0.005659666483278225,0.0004080533605218779,3.6936857162161862,2.855118773143374,3.752023924465682,0.008443602328875265,0.009288940323487026,-0.0006199274283829732,0.006263124401056085,0.005722733248633716,0.004704738444651809,4.973375682162319,3.954576529270241,4.9265965265416956,-0.017794212247660757,-0.0071657928100711124,0.002312477024224457,hand
0.0014198952121244758,2.380970637667179e-05,-0.01102291305449522,3.612881401103485,2.2501046577406516,3.1492918590888186,-0.002316042136331134,-0.00022357998400253268,0.011746921428673956,0.005938268893297232,0.0020484022678800614,0.005858351890754948,6.624692115920086,6.004912604890907,5.2213294333838105,-0.019694924551457132,-0.014209336606446759,-0.018361684593156662,hand
-0.0028718981416010108,0.0006831341029378874,-0.0025035651162886464,2.9599510909098696,3.710863107078236,4.579235079825336,0.00498577842685758,-0.0009787325375019348,0.004283917108691968,-0.0032168309665927897,-0.0036402740235823698,-0.006714465609007777,8.323561527573228,6.900426223997754,3.612556056213314,-0.015710515141814412,0.006013771617721722,0.002672815978040676,foot
0.0076560305496482465,0.010050753403729398,0.010229656399646826,2.6545263134944834,2.2599512821403125,3.763283414590128,-0.011802756026908777,-0.010003475627442665,-0.013196417194032624,-0.0015734067774243639,-0.002253397386665946,-0.002895849974548132,7.739275168339379,6.204269352564908,4.529729105355211,0.01793381150305469,0.017070855010950795,0.012556468821660513,hand
-0.00629305958705689,-0.011221945665967637,0.0033388393151197473,1.9243323443902902,2.1889782669309423,2.2671684527421947,0.015362206986269193,0.012584180116015118,0.0051659638720583205,0.0003568563503596196,0.0013772446733855493,-0.000358384803384316,3.4215999679687537,3.261137043060776,3.644805324981862,0.007062499072928093,0.011756835683093967,0.005543256441509943,hand
-0.0017730339031933528,6.83687180947654e-05,-0.011404341820620627,3.034712104294329,2.7021103769056043,3.5677110614202476,-0.0016034858869069415,-0.0013073819265954697,0.010288005237361342,0.0003533985724363067,-0.0012047047334272235,-0.0018750769690737564,9.270283310049523,7.390930115790747,4.704696271915775,-0.05514262346345744,-0.037047586986731905,-0.009675186282356788,hand
-0.0017411096162407462,-9.44225444901825e-05,0.006166797874208524,3.3350251481122073,2.7836105849982657,2.010398029714911,0.004148475373123455,0.0009624639792831793,-0.008343960369728199,0.001537539746090398,0.007149931422193787,0.0007736170453572377,7.328142242118656,6.136108713423682,4.157755192576505,-0.04118151256260654,-0.027072382692544975,-0.017474666370885225,hand
0.007435222150994784,0.003580412323775639,0.0017727928112839138,7.23372690922321,5.418382874536193,7.263945488959749,-0.007981118980135125,-0.004564331831279281,-0.0018696238825360945,-0.0034436782158385436,-0.007942590286137816,-0.0008329644460856435,9.568855554590069,7.9433593212250475,4.58819043471503,-0.023694405622910628,-0.016287689865309648,-0.01378635842433828,foot
-0.006787852281868462,-0.00421755385830378,-0.0056889707936291865,3.0698950488055363,2.7102703015386886,4.093161914049438,0.009848474105158494,0.007403296491430732,0.007670575670900008,-0.003060575262753564,-0.0025300889191441273,0.004779407544725487,7.949188976269206,6.664219141554058,4.864458486988259,-0.008234939180433333,-0.008482679778540014,0.012989597473760309,foot
